<KNScript ver="1.0">

<chapter>プロローグ</chapter>
<name>主人公</name>
<msg>あいうえお</msg>

<msg>
asdfgh
<font color="red">123456</font><br/>
123456789
</msg>

<set name="count" value="0" />

<label name="count"/>
<msg>
count <value name="count"/>
</msg>

<if name="count" operator="<" value="10">
<inc name="count"/>
<jump label="count"/>
</if>

<macro name="test"/>

</KNScript>

